The Queen’s Gambit,gambit,1,9,Drama,Scott Frank,Scott Frank,Anya Taylor-Joy,English,SAD,Netflix
Emily in Paris,emily,9,5,Drama,Jackob Jonathan,Scott Frank,Lily Collins,English,SAD,Netflix
Casa de Papel,casa,9,5,Drama,Jackob Jonathan,Scott Frank,Lily Collins,English,SAD,Netflix
Dark,dark,9,5,Drama,Jackob Jonathan,Scott Frank,Lily Collins,English,SAD,Netflix
Game of Thrones,game,9,5,Drama,Jackob Jonathan,Scott Frank,Lily Collins,English,SAD,Netflix
Breaking bed,bed,9,5,Drama,Jackob Jonathan,Scott Frank,Lily Collins,English,SAD,Netflix
